{
  "定义": "衡量上市公司一年内销售商品或提供服务所产生的收入",
  "分析方法": {
    "比较企业营业收入与行业平均水平": [
      "如果企业营业收入高于行业平均水平,说明企业在行业中具有竞争优势"
    ],
    "分析企业营业收入增长率的持续性": [
      "如果企业营业收入增长率是持续性的,说明企业发展前景良好"
    ],
    "分析企业营业收入增长率的来源": [
      "如果企业营业收入增长率主要来自新产品或服务,说明企业具有创新能力"
    ]
  },
  "分析结果": {
    "企业的经营状况": [
      "营业收入是企业经营活动的核心指标,营业收入的增长反映了企业经营活动的活跃程度",
      "因此,通过分析营业收入,可以了解企业的经营状况."
    ],
    "企业的市场竞争力": [
      "营业收入的增长可以通过扩大市场份额、提高产品或服务的价格等方式实现",
      "因此,通过分析营业收入的增长,可以了解企业的市场竞争力"
    ],
    "企业的发展前景": [
      "营业收入的增长可以反映出企业的发展潜力",
      "因此,通过分析营业收入的增长,可以了解企业的发展前景"
    ]
  }
}